<svg width="148" height="58" viewBox="0 0 148 58" fill="none" xmlns="http://www.w3.org/2000/svg">
<g clip-path="url(#clip0_409_12862)">
<path d="M26.8569 27.2173C27.6064 23.6312 26.2532 21.0608 23.8382 19.3817C21.6314 17.9099 18.8416 17.7026 15.8853 19.1537L3.60214 24.6676C2.86008 24.9813 2.18817 25.4389 1.62559 26.0138C1.06301 26.5887 0.621021 27.2694 0.325399 28.0162C0.0297775 28.7629 -0.113561 29.5608 -0.096257 30.3633C-0.078953 31.1658 0.0986473 31.9568 0.426187 32.6903C0.753726 33.4237 1.22465 34.0849 1.81149 34.6352C2.39833 35.1855 3.08935 35.614 3.84425 35.8957C4.59914 36.1774 5.4028 36.3066 6.20836 36.2757C7.01393 36.2449 7.80527 36.0547 8.53623 35.7162L10.1601 34.97L7.5161 49.2731C6.76662 53.5847 9.57718 57.1087 13.4079 57.8549C17.4676 58.6012 21.4232 55.9478 22.0894 51.9057L26.8569 27.2173Z" fill="white"/>
<path d="M138.586 18.3245C131.82 17.3503 124.991 21.2888 122.389 26.8442L122.826 24.4189C123.929 19.5061 121.868 18.2001 118.35 18.2001H113.791C109.46 18.2001 108.482 20.5425 107.961 23.258L102.652 52.569C102.215 54.559 102.507 58 106.4 58H112.729C116.476 58 117.205 55.0772 117.725 52.2788L120.286 38.2037C120.89 34.9907 121.39 33.436 122.493 32.2545C124.179 30.3474 127.573 29.4768 129.925 31.3838C131.32 32.5447 131.841 34.5347 131.466 37.3331L128.905 52.569C128.343 55.9478 129.78 58 132.59 58H138.919C142.521 58 143.249 55.2223 143.77 52.2788L147.476 33.1873C149.204 26.3052 146.774 19.5061 138.586 18.3245Z" fill="#222933"/>
<path d="M98.0103 14.386C102.035 14.386 105.297 11.1656 105.297 7.193C105.297 3.22041 102.035 0 98.0103 0C93.986 0 90.7236 3.22041 90.7236 7.193C90.7236 11.1656 93.986 14.386 98.0103 14.386Z" fill="white"/>
<path d="M98.4738 52.2373C97.9533 55.3052 97.079 57.9585 93.4773 57.9585H87.0858C84.0046 57.9585 82.8804 55.6783 83.4842 52.6726L88.7243 23.2166C89.2448 20.0658 90.6396 18.1587 94.5536 18.1587H99.4044C103.527 18.1587 104.547 20.1487 103.672 24.3774L98.4738 52.2373Z" fill="#222933"/>
<path d="M28.1416 18.1587C29.7655 20.0658 31.6808 22.4081 30.7023 28.1294L28.2041 41.5618L28.6413 52.341C28.7245 56.238 30.6399 57.9171 33.8668 57.9171H42.1111C44.6719 57.9171 45.7961 55.9271 46.8162 53.4603L53.0619 38.1415L53.7281 52.797C53.8114 56.01 55.4145 58 58.4332 58H67.7809C70.4249 58 71.5283 56.3831 72.715 53.5432L84.7067 24.2323C86.0183 21.2266 85.2272 18.2209 81.9794 18.2209H76.0044C73.7976 18.2209 72.257 18.9671 71.3618 21.0815L63.2632 40.6912L62.5137 23.1751C62.368 19.4439 60.5984 18.2001 58.454 18.2001H52.3541C49.9182 18.2001 48.5234 19.1537 47.7947 20.9778L39.6961 40.7741L38.9466 22.7398C38.8634 19.361 37.6975 18.2001 34.9702 18.2001H28.1416V18.1587Z" fill="#222933"/>
</g>
<defs>
<clipPath id="clip0_409_12862">
<rect width="148" height="58" fill="white"/>
</clipPath>
</defs>
</svg>
