<svg width="148" height="24" viewBox="0 0 148 24" fill="none" xmlns="http://www.w3.org/2000/svg">
<path d="M45.3105 13.1161H35.6269V9.3548H47.334V4.14688H29.9902V23.4355H35.6269V18.2277H45.3105V13.1161Z" fill="white"/>
<path d="M76.0956 16.9739L70.9646 4.14688H64.5332L72.8439 23.4355H79.2756L87.586 4.14688H81.2268L76.0956 16.9739Z" fill="white"/>
<path d="M105.58 13.5983C107.025 12.6338 107.748 11.1872 107.748 9.45122C107.748 6.26863 105.724 4.14688 101.822 4.14688H89.1035V23.4355H102.111C106.375 23.4355 108.253 21.2173 108.253 17.9382C108.182 16.2022 107.386 14.5628 105.58 13.5983ZM94.5955 8.77614H100.883C101.605 8.77614 102.111 9.3548 102.111 10.2228C102.111 11.0908 101.605 11.6695 100.883 11.6695H94.5955V8.77614ZM101.316 18.8062H94.5955V15.913H101.316C102.039 15.913 102.545 16.4917 102.545 17.3595C102.545 18.2277 102.039 18.8062 101.316 18.8062Z" fill="white"/>
<path d="M116.492 15.913H126.104V11.6695H116.492V9.3548H127.187V4.14688H110.855V23.4355H127.404V18.2277H116.492V15.913Z" fill="white"/>
<path d="M129.717 4.14688V9.3548H136.003V23.4355H141.713V9.3548H148V4.14688H129.717Z" fill="white"/>
<path d="M53.8379 4.14688L45.5273 23.4355H51.5255L52.6817 20.6386H61.5704L62.7268 23.4355H68.9414L60.6309 4.14688H53.8379ZM54.633 15.5272L57.0899 9.3548L59.5471 15.5272H54.633Z" fill="white"/>
<path d="M0 11.6703L4.98633 23.4363H11.3457L6.35938 11.6703H0Z" fill="white"/>
<path d="M16.332 11.6703L11.3457 23.4363H17.7773L22.7636 11.6703H16.332Z" fill="white"/>
<path d="M11.3457 0L6.35938 11.6696H16.332L11.3457 0Z" fill="white"/>
</svg>
