<svg xmlns="http://www.w3.org/2000/svg" width="215" height="56" viewBox="0 0 215 56">
    <g fill="none" fill-rule="nonzero">
        <path fill="#254989" d="M71.833 12.253A20.477 20.477 0 0 0 53.07.003c-1.864 0-3.696.257-5.477.755l-.001-.005-37.71 10.084 29.776-5.82a20.493 20.493 0 0 0-6.575 11.12l-15.76 4.792 15.385-2.415a20.238 20.238 0 0 0 .593 7.178 209.37 209.37 0 0 1 3.946-.904l2.285-5.013-2.396-7.408-1.54.773a18.9 18.9 0 0 1 6.38-8.042l-.352 1.882 7.932.464 6.496-4.41-.892-1.413c3.569.393 6.9 1.787 9.65 3.947l-2.09.11 1.596 7.62 6.175 4.45.98-1.92c.89 3.508.755 7.181-.423 10.654l-1.23-1.697-6.986 3.77-1.83 7.6 2.11.34c-.774.48-1.587.908-2.437 1.278a18.859 18.859 0 0 1-7.585 1.59c-.135 0-.27-.005-.405-.008l1.365-1.715-5.587-4.927-7.896-.188.235 2.327a18.911 18.911 0 0 1-4.7-5.997 202.745 202.745 0 0 0 12.71-4.397l1.73 2.673 7.934-2.099.45-8.179-7.655-2.955-5.181 6.352 2.197 3.396L1.49 36.252c12.44-1.384 23.969-4.178 33.154-6.95a20.47 20.47 0 0 0 13.862 11.042L0 55.79l58.287-15.586-.003-.011a20.743 20.743 0 0 0 2.993-1.043c5.01-2.185 8.866-6.186 10.86-11.266a20.252 20.252 0 0 0-.304-15.63zM83.306 26.686l4.582-2.651c.83 1.922 2.257 3.214 4.88 3.214 2.524 0 3.154-.994 3.154-1.889 0-1.424-1.327-1.988-4.814-2.948-3.453-.961-6.84-2.618-6.84-7.058 0-4.473 3.786-7.057 7.803-7.057 3.819 0 6.807 1.822 8.5 5.235l-4.483 2.617c-.797-1.657-1.892-2.684-4.017-2.684-1.66 0-2.49.829-2.49 1.756 0 1.06.564 1.79 4.183 2.883 3.52 1.06 7.47 2.286 7.47 7.19 0 4.473-3.585 7.124-8.632 7.124-4.88 0-8.001-2.32-9.296-5.732zM120.657 16.713c0 4.407-3.552 7.952-8.134 7.952h-3.486v7.29h-5.313V8.76h8.799c4.582 0 8.134 3.545 8.134 7.952zm-5.313 0c0-1.69-1.195-2.982-2.821-2.982h-3.486v5.964h3.486c1.626 0 2.821-1.293 2.821-2.982zM122.15 20.357c0-6.825 5.412-12.06 12.086-12.06 6.673 0 12.085 5.235 12.085 12.06 0 6.826-5.412 12.061-12.085 12.061-6.674 0-12.085-5.235-12.085-12.06zm18.859 0c0-4.141-2.988-6.891-6.773-6.891-3.785 0-6.773 2.75-6.773 6.891 0 4.142 2.988 6.892 6.773 6.892 3.785 0 6.773-2.75 6.773-6.892zM157.143 24.333h-2.523v7.62l-5.312.001V8.761h9.297a7.94 7.94 0 0 1 7.968 7.952c0 2.85-1.727 5.434-4.284 6.726l4.948 8.515h-5.71l-4.383-7.62zm-2.523-4.638h3.985c1.46 0 2.656-1.293 2.656-2.982 0-1.69-1.196-2.982-2.656-2.982h-3.985v5.964zM184.832 13.863h-5.976v18.09h-5.312v-18.09h-5.976V8.761h17.264z"/>
        <path fill="#F26925" d="M215 23.881h-8.09v8.073h-7.078V23.88h-8.089v-7.064h8.089V8.744h7.078v8.073H215z"/>
    </g>
</svg>