<svg width="148" height="50" viewBox="0 0 148 50" fill="none" xmlns="http://www.w3.org/2000/svg">
<g clip-path="url(#clip0_409_12879)">
<path d="M28.9271 22.3897C29.8128 21.7799 30.7523 21.2534 31.7336 20.817C31.69 20.7562 31.639 20.7012 31.5819 20.6531C31.476 20.5934 31.3654 20.5423 31.2514 20.5002C28.2607 19.135 26.3101 16.8796 25.6817 13.6195C25.3645 12.1319 25.3747 10.5922 25.7117 9.10905C26.0487 7.62586 26.7042 6.23518 27.6322 5.03495C27.811 4.79467 27.8489 4.66361 27.6322 4.42879C26.4395 3.17347 25.01 2.1709 23.4277 1.4799C21.4988 0.6443 19.4354 0.168765 17.3378 0.076452C13.4585 -0.152906 9.70376 0.24574 6.28496 2.33726C4.15061 3.58092 2.51264 5.53499 1.65251 7.8637C1.08232 9.46654 0.905715 11.1847 1.13779 12.8713C1.2505 14.0509 1.59617 15.1958 2.15446 16.2387C2.71275 17.2815 3.47238 18.2013 4.38864 18.9439C5.34629 19.6979 6.41596 20.2951 7.55821 20.7132C7.46068 20.9753 7.22229 20.9917 7.0164 21.0682C3.79265 22.4716 1.41412 24.6778 0.422609 28.1946C0.249231 28.8062 0.297994 29.4889 0 30.035V30.9851C0.0813132 31.2947 0.0813132 31.6203 0 31.9299L0 32.7654C0.14087 32.8419 0.0975253 32.9784 0.113779 33.0931C0.256131 34.6847 0.723294 36.2296 1.48596 37.6307C2.24863 39.0319 3.29035 40.259 4.54576 41.2353C6.7176 42.8923 9.28619 43.9399 11.9902 44.2715C15.3346 44.8322 18.761 44.6325 22.019 43.6872C24.0626 43.1012 25.9495 42.0598 27.5401 40.64C27.7839 40.4216 27.8543 40.3069 27.5996 40.0229C25.6124 37.8098 24.5034 34.9366 24.4843 31.9517C24.3813 27.998 25.7087 24.7597 28.9271 22.3897ZM9.88798 9.61665C10.9716 7.81455 12.6349 7.01726 14.6234 6.77152C15.0059 6.74966 15.3894 6.74966 15.772 6.77152C17.0637 6.68435 18.3545 6.95437 19.5051 7.55242C20.2639 7.92864 20.9169 8.4907 21.4044 9.18716C21.8919 9.88361 22.1982 10.6922 22.2954 11.5389C22.5608 13.5758 22.2954 15.498 20.7512 16.9998C19.9831 17.751 19.0093 18.2531 17.9555 18.4415C15.8208 18.8128 13.686 18.8619 11.7301 17.6824C10.9781 17.2431 10.3511 16.6158 9.90981 15.8611C9.46849 15.1063 9.22771 14.2496 9.21072 13.3737C9.05371 12.0793 9.29584 10.7675 9.90423 9.61665H9.88798ZM23.4819 31.5804C23.4417 32.6808 23.108 33.7499 22.5159 34.6754C21.9238 35.6008 21.0952 36.3483 20.1173 36.8392C18.9827 37.424 17.7338 37.7485 16.4601 37.7894C14.6306 37.9647 12.7908 37.5843 11.1775 36.6973C10.2825 36.2023 9.5279 35.4849 8.98547 34.6132C8.44305 33.7415 8.13078 32.7445 8.07834 31.7169C7.91038 29.8001 8.25172 28.0199 9.62791 26.5727C10.5836 25.5937 11.8051 24.9211 13.1388 24.6396C13.8905 24.4397 14.6641 24.3351 15.4415 24.3283C17.5275 24.3283 19.2341 24.645 20.8 25.6389C22.9672 27.026 23.6499 29.123 23.509 31.5695" fill="white"/>
<path d="M78.6814 25.0437C77.3897 23.2728 75.6307 21.903 73.6047 21.09C73.4042 21.0081 73.155 20.9862 73.0629 20.7514C73.0629 20.7514 73.1008 20.6859 73.1225 20.675C73.3013 20.5985 73.4801 20.5384 73.6643 20.462C75.6494 19.6971 77.3045 18.2532 78.3401 16.3827C78.9639 15.1507 79.3325 13.8037 79.4237 12.4235C79.6094 10.4985 79.2506 8.55974 78.3888 6.83158C77.4003 4.86919 75.8509 3.25047 73.9406 2.18436C72.132 1.12886 70.1273 0.459681 68.0512 0.218435C64.8171 -0.263534 61.5169 -0.00407389 58.3962 0.9775C56.3346 1.63816 54.4676 2.80327 52.9618 4.36872C52.7289 4.609 52.6801 4.75644 52.9077 5.05679C53.9603 6.40428 54.649 8.00336 54.9069 9.69856C55.1259 11.1521 55.0707 12.6343 54.7444 14.0673C54.3497 15.9426 53.354 17.6351 51.9107 18.8838C51.0964 19.578 50.1832 20.145 49.2017 20.5657C49.0987 20.6149 48.9362 20.6258 48.9308 20.7787C48.9254 20.9316 49.0988 20.9371 49.1909 20.9862C49.5864 21.1992 49.9981 21.3794 50.3883 21.5979C52.9185 23.0232 54.7877 25.0055 55.6221 27.867C56.3948 30.5519 56.3 33.415 55.3512 36.0419C54.8325 37.5271 54.0092 38.8854 52.9347 40.0284C52.7505 40.2359 52.6693 40.3615 52.9347 40.5745C54.3487 41.869 56.0072 42.8627 57.811 43.4961C60.3851 44.3361 63.0897 44.6952 65.7918 44.5555C69.1619 44.4244 72.3748 43.6981 75.2301 41.7813C77.1006 40.5532 78.5794 38.8068 79.4887 36.7519C80.1828 35.15 80.5425 33.4212 80.5452 31.6732C80.6619 29.3138 80.0071 26.9809 78.6814 25.0328V25.0437ZM59.9566 8.34425C61.0815 7.32756 62.5363 6.76044 64.0472 6.74967C65.2111 6.64269 66.3846 6.7519 67.5094 7.07186C69.6332 7.79816 71.302 9.51835 71.367 11.9867C71.367 12.2324 71.4049 12.4727 71.4266 12.7184C71.4266 14.6898 70.8144 16.3499 69.1456 17.5131C68.4614 18.0011 67.6789 18.3311 66.8538 18.4797C65.196 18.8344 63.4748 18.7421 61.8637 18.2121C60.8942 17.9092 60.0358 17.3229 59.3972 16.5276C58.7587 15.7324 58.3688 14.7639 58.277 13.7451C58.0223 11.6863 58.3582 9.79139 59.9566 8.32241V8.34425ZM72.5536 31.3019C72.5466 32.1726 72.3593 33.0323 72.0039 33.8259C71.6484 34.6195 71.1326 35.3297 70.4893 35.9109C69.4001 36.8839 68.0436 37.5009 66.5991 37.6802C64.6517 38.034 62.6441 37.8062 60.8235 37.0249C59.8753 36.6392 59.0442 36.0096 58.4129 35.1989C57.7816 34.3882 57.3723 33.4249 57.2259 32.405C56.9333 30.5319 57.0308 28.697 58.2228 27.0861C59.1626 25.8774 60.4832 25.0279 61.9667 24.6778C62.9273 24.3998 63.9268 24.2836 64.9249 24.3338C66.582 24.2345 68.2307 24.6357 69.6603 25.486C71.8276 26.8458 72.6457 28.8609 72.5536 31.3183" fill="white"/>
<path d="M35.2773 31.1654L40.4787 24.028L45.68 31.1708L40.4733 38.3082L35.2773 31.1654Z" fill="#141414"/>
<path d="M34.5566 9.15246V8.69921C34.591 8.61992 34.6182 8.53767 34.6379 8.45347C34.7146 7.88857 34.9649 7.36206 35.3536 6.94779C35.7422 6.53351 36.2498 6.25227 36.8051 6.1435C37.4653 6.01697 38.1485 6.1178 38.745 6.42978C39.3414 6.74175 39.8165 7.24677 40.0939 7.86369C40.2402 8.15312 40.3594 8.45347 40.484 8.73197C40.7409 8.19356 41.0342 7.67355 41.3617 7.17562C41.7219 6.70945 42.2152 6.36581 42.7752 6.19102C43.3352 6.01623 43.9349 6.01871 44.4934 6.19811C45.0244 6.36583 45.4913 6.69429 45.8306 7.13885C46.1699 7.58341 46.3651 8.1225 46.3897 8.68282C46.4394 9.6217 46.1845 10.5514 45.6637 11.3314C44.9539 12.4235 44.1737 13.472 43.4098 14.5205C42.3262 16.0114 41.2425 17.4913 40.6411 19.2824C40.6086 19.3807 40.5653 19.4736 40.5003 19.6429C40.1208 18.3145 39.5039 17.0672 38.6798 15.9622C38.138 15.2031 37.5962 14.455 37.0544 13.7014C36.0358 12.287 34.8275 10.9709 34.5566 9.15246Z" fill="#141414"/>
<path d="M84.0234 15.1977H88.0545C88.0545 16.754 88.8238 17.4203 90.0646 17.4203C91.3053 17.4203 91.9988 16.6721 91.9988 15.6946C91.9988 12.4727 84.4135 12.0795 84.4135 6.1599C84.4135 3.18371 86.4778 1.01573 90.0375 1.01573C93.5972 1.01573 95.7481 3.1564 95.7481 6.74422H91.7225C91.7225 5.46637 91.1428 4.82198 90.0104 4.82198C88.9918 4.82198 88.385 5.36807 88.385 6.26912C88.385 9.32722 96.0515 9.54566 96.0515 15.7274C96.0515 18.922 93.8193 21.2593 89.9833 21.2593C86.3424 21.2593 84.0234 19.1132 84.0234 15.1977Z" fill="#141414"/>
<path d="M108.828 5.16056H105.035V20.8716H101.009V5.16056H97.2168V1.40346H108.806L108.828 5.16056Z" fill="#141414"/>
<path d="M116.759 17.6442H112.695L112.062 20.8716H108.009L112.641 1.40346H116.835L121.473 20.8716H117.415L116.759 17.6442ZM115.99 13.8871L115.545 11.6645C115.296 10.2774 114.966 7.91285 114.771 6.32373H114.662C114.467 7.91285 114.164 10.2774 113.887 11.6645L113.449 13.8871H115.99Z" fill="#141414"/>
<path d="M128.457 14.3349H127.08V20.8879H123.163V1.40346H128.76C132.596 1.40346 134.861 3.79533 134.861 7.88555C134.861 10.5232 133.896 12.4727 132.184 13.4994L135.825 20.8716H131.55L128.457 14.3349ZM127.08 10.5832H128.706C130.087 10.5832 130.83 9.63303 130.83 7.88555C130.83 6.13806 130.087 5.1551 128.706 5.1551H127.08V10.5832Z" fill="#141414"/>
<path d="M148 17.1145V20.8716H136.937V18.2285L143.037 5.16056H137.408V1.40346H147.859V4.13391L141.791 17.1145H148Z" fill="#141414"/>
<path d="M103.366 34.2344C103.261 33.8785 103.193 33.5124 103.165 33.1422C103.165 32.7982 103.301 32.4814 103.284 32.1429C103.238 31.794 103.147 31.4526 103.013 31.1271C102.77 30.3571 102.439 29.6145 102.147 28.8609C102.082 28.697 102.022 28.5277 101.957 28.3585C101.822 27.9733 101.64 27.6064 101.415 27.2663C101.233 27.0267 101.028 26.8055 100.803 26.6055C100.435 26.1941 100.02 25.8276 99.5676 25.5133C99.1292 25.2878 98.65 25.154 98.1589 25.1201C97.4036 25.0533 96.6429 25.1482 95.9266 25.3986C95.076 25.6881 94.0953 25.213 93.2989 25.7208C93.0022 25.9132 92.7401 26.1551 92.5241 26.4362C92.2885 26.7401 92.0817 27.0655 91.9064 27.4083C91.715 27.7723 91.5344 28.1164 91.3646 28.4404C91.0024 29.0702 90.7064 29.7364 90.4815 30.4281C90.2765 31.0646 90.1136 31.714 89.9939 32.3722C89.895 32.9284 89.8298 33.49 89.7988 34.0542C89.7663 35.0321 89.788 36.0112 89.8638 36.9867C89.8744 37.5772 89.9233 38.1664 90.0101 38.7506C90.074 39.143 90.1794 39.5275 90.3244 39.8973C90.4774 40.2449 90.6587 40.5791 90.8662 40.8967C91.072 41.268 91.2779 41.6394 91.473 41.9889C91.5891 42.3388 91.7733 42.6618 92.0148 42.9391C92.1502 43.0483 92.3128 43.1302 92.4537 43.234C92.7209 43.4324 92.9678 43.6575 93.1905 43.9056C93.4038 44.1096 93.6361 44.2925 93.884 44.4517C94.369 44.7672 94.907 44.9911 95.4715 45.1125C96.8362 45.3523 98.2404 45.0657 99.405 44.3097C99.8744 44.0255 100.307 43.6844 100.695 43.294C101.051 42.9405 101.331 42.5166 101.518 42.0489C101.82 41.6745 102.072 41.2613 102.266 40.8202C102.452 40.4153 102.605 39.9951 102.721 39.5642C102.802 39.2639 102.894 38.969 102.954 38.6686C102.997 38.4611 103.008 38.2536 103.041 38.0461C103.084 37.7403 103.252 37.4509 103.328 37.145C103.404 36.8307 103.458 36.5113 103.49 36.1894C103.551 35.5352 103.509 34.8753 103.366 34.2344ZM101.952 37.7075C101.759 38.3967 101.497 39.0644 101.171 39.7007C100.824 40.3693 100.394 40.9913 99.8927 41.552C99.4479 42.0655 98.9065 42.485 98.2997 42.7862C98.1001 42.8892 97.8793 42.9434 97.655 42.9445C97.5006 42.9393 97.3476 42.9136 97.1999 42.8681C96.9398 42.7862 96.7014 42.666 96.4414 42.5896L96.2734 42.5513C94.7681 41.5643 93.6719 40.0575 93.1905 38.3137C93.1811 38.2709 93.1684 38.2289 93.1526 38.1881C93.0292 37.7526 92.935 37.3093 92.8708 36.8611C92.8789 36.7593 92.8789 36.657 92.8708 36.5553C92.8708 36.4406 92.8329 36.3205 92.8112 36.2058C92.7192 35.1774 92.7666 34.1413 92.9521 33.1258C93.0638 32.8126 93.1437 32.4887 93.1905 32.1592C93.1905 32.05 93.223 31.9408 93.2501 31.8316C93.3097 31.6241 93.3693 31.4166 93.4343 31.2145C93.5247 30.9673 93.6315 30.7264 93.754 30.4937C94.0434 29.9407 94.2932 29.3677 94.5017 28.7789C94.6148 28.5088 94.7545 28.2509 94.9189 28.009C95.1248 27.6922 95.3523 27.381 95.5907 27.0751C95.7946 26.8147 96.0116 26.565 96.2409 26.327C96.863 26.2269 97.4993 26.266 98.1047 26.4417H98.1697C98.4936 26.5796 98.8101 26.7346 99.1179 26.9059C99.247 27.0525 99.4011 27.1745 99.573 27.2663C99.6662 27.3169 99.755 27.3754 99.8385 27.441L99.936 27.5393L99.9794 27.6049C100.11 27.8616 100.262 28.1064 100.434 28.3366C100.63 28.6042 100.825 28.8827 101.025 29.1448L101.09 29.2431C101.258 29.5926 101.431 29.9913 101.599 30.45C101.675 30.6466 101.74 30.8486 101.8 31.0507V31.1271C101.832 31.3183 101.881 31.5258 101.914 31.706C101.968 32.0173 101.984 32.3285 102.054 32.6343C102.103 32.8528 102.157 33.0767 102.195 33.3006C102.308 34.774 102.226 36.2559 101.952 37.7075Z" fill="white"/>
<path d="M119.041 21.9364C118.831 21.7687 118.572 21.6747 118.304 21.6689C118.061 21.6674 117.82 21.7119 117.594 21.7999C117.374 21.8881 117.169 22.0117 116.987 22.1658C116.815 22.3113 116.669 22.4848 116.554 22.6791C116.453 22.8456 116.388 23.0317 116.364 23.2252C116.341 23.4837 116.241 23.7292 116.077 23.9297C115.952 24.0841 115.881 24.2763 115.877 24.4758L115.194 25.8628C115.055 26.0565 114.928 26.259 114.815 26.469C114.745 26.61 114.697 26.7611 114.674 26.9168C114.544 27.1789 114.414 27.4629 114.278 27.7032C114.176 27.8102 114.087 27.9294 114.013 28.0581C113.94 28.1842 113.901 28.3272 113.899 28.4731C113.366 29.6075 112.754 30.7024 112.068 31.7497C111.938 31.9124 111.762 32.0322 111.564 32.0937C111.341 32.083 111.122 32.037 110.914 31.9572C110.699 31.8746 110.472 31.8284 110.242 31.8207C110.152 31.8272 110.063 31.8418 109.976 31.8644L109.613 31.9463L109.304 32.0282C109.212 32.0282 109.169 32.0773 109.169 32.0937C109.164 32.1247 109.153 32.1544 109.136 32.1811C108.839 32.263 108.595 32.4323 108.102 33.0658C108.069 33.0825 108.041 33.1056 108.017 33.1338C107.994 33.1619 107.977 33.1945 107.966 33.2296V33.2842C107.749 33.6009 107.495 33.9996 107.175 34.5238C105.55 37.2106 103.534 40.6236 105.165 42.6715C105.257 42.7916 105.349 42.8954 105.436 42.9937C105.507 43.0906 105.593 43.1754 105.691 43.2449C107.078 44.5063 108.172 43.6817 108.557 43.2886C108.67 43.1337 108.77 42.9693 108.855 42.7971L108.925 42.7206C109.022 42.6172 109.103 42.4993 109.164 42.3711C109.384 41.7644 109.66 41.1795 109.987 40.6236C110.202 40.2303 110.383 39.8193 110.529 39.3949C111.369 37.6748 112.328 35.6761 113.124 34.0269C113.124 34.0269 113.124 34.0269 113.151 34.0269C113.178 34.0269 113.314 33.9395 113.368 33.7648C113.422 33.5858 113.464 33.4034 113.493 33.2187C113.634 32.9292 113.769 32.6726 113.888 32.3995C113.916 32.3806 113.939 32.3555 113.956 32.3262C113.973 32.2969 113.983 32.2641 113.986 32.2302V32.2193C114.425 31.3183 114.723 30.723 114.777 30.652C115.031 30.3353 115.199 30.3954 114.885 31.848C114.571 33.3006 113.021 41.2134 112.891 43.7691C112.836 43.8811 112.806 44.0043 112.805 44.1295C112.803 44.2094 112.822 44.2882 112.859 44.3589C112.723 46.161 112.49 46.6033 112.788 47.3733C112.783 47.4095 112.783 47.4463 112.788 47.4825C112.793 47.6248 112.815 47.766 112.853 47.903C112.899 48.0767 112.962 48.2451 113.043 48.4054C113.12 48.5599 113.214 48.7048 113.325 48.8368C113.362 48.8896 113.409 48.9339 113.464 48.9668C113.519 48.9997 113.581 49.0206 113.644 49.028C113.742 49.0316 113.838 49.0123 113.927 48.9715C114.015 48.9307 114.093 48.8696 114.154 48.7931C114.281 48.6385 114.386 48.4655 114.462 48.2798C114.539 48.1053 114.594 47.9219 114.625 47.7337C114.652 47.5699 114.663 47.4771 114.663 47.4607C114.664 47.2488 114.678 47.0372 114.706 46.8272C114.737 46.606 114.804 46.3917 114.907 46.1938C114.907 46.1656 114.9 46.1379 114.887 46.1131C114.873 46.0883 114.854 46.0672 114.831 46.0518C114.831 45.9862 114.858 45.9207 114.874 45.8497C115.275 43.8893 116.337 35.6542 116.63 34.0542C116.716 33.5845 116.83 32.962 116.96 32.2521C117.058 32.2521 117.106 32.1756 117.106 32.0227C117.102 31.9396 117.081 31.8581 117.047 31.7824C117.139 31.2855 117.237 30.7776 117.334 30.2916L117.426 30.1988C117.524 30.0816 117.572 29.9309 117.562 29.7783C117.562 29.5708 117.562 29.3414 117.562 29.0902C117.648 28.6834 117.758 28.2822 117.892 27.8888C117.995 27.6267 118.103 27.3154 118.206 26.9769C118.241 26.9022 118.272 26.8256 118.298 26.7475C118.363 26.5727 118.429 26.3871 118.504 26.2014C118.522 25.8946 118.58 25.5915 118.678 25.3004C118.775 25 118.878 24.7051 118.987 24.4048C119.094 24.1039 119.186 23.7977 119.263 23.4873C119.346 23.1645 119.388 22.8324 119.388 22.4989C119.374 22.3853 119.336 22.276 119.276 22.1788C119.216 22.0816 119.136 21.9989 119.041 21.9364ZM111.152 34.3381C111.098 34.4637 111.038 34.5948 110.968 34.7313C110.897 34.8602 110.816 34.9827 110.724 35.0972C110.652 35.1841 110.572 35.2645 110.486 35.3375C110.231 35.8235 109.944 36.2986 109.678 36.7573C109.413 37.216 109.137 37.6802 108.871 38.1499C108.73 38.4229 108.557 38.7724 108.329 39.2038C108.102 39.6352 107.912 40.0612 107.701 40.4762C107.489 40.8912 107.284 41.2462 107.11 41.5684C106.937 41.8906 106.801 42.0107 106.731 42.0107C106.687 42.0098 106.643 41.9951 106.608 41.9688C106.572 41.9424 106.545 41.9056 106.53 41.8633C106.483 41.7519 106.452 41.6341 106.438 41.5138C106.438 41.3772 106.406 41.2516 106.395 41.1315C106.384 41.0114 106.395 40.9294 106.395 40.8748C106.4 40.6804 106.422 40.4867 106.46 40.296C106.503 40.0502 106.563 39.7936 106.639 39.5205C106.715 39.2475 106.79 38.9744 106.888 38.7123C106.978 38.4676 107.091 38.2318 107.224 38.0079C107.33 37.838 107.412 37.6542 107.468 37.4618C107.794 36.5579 108.327 35.7441 109.023 35.0863C109.603 34.5121 110.311 34.0853 111.087 33.8412C111.156 33.9159 111.203 34.0086 111.222 34.1088C111.21 34.1883 111.187 34.2656 111.152 34.3381Z" fill="white"/>
<path d="M131.458 21.9364C131.246 21.7679 130.986 21.674 130.716 21.6689C130.473 21.6674 130.233 21.7119 130.006 21.7999C129.787 21.8906 129.582 22.014 129.399 22.1658C129.229 22.3114 129.084 22.4849 128.971 22.6791C128.871 22.8456 128.806 23.0317 128.782 23.2252C128.756 23.4832 128.656 23.728 128.495 23.9297C128.367 24.083 128.297 24.2759 128.294 24.4758C128.088 24.8853 127.861 25.3604 127.611 25.8628C127.47 26.0552 127.344 26.2578 127.232 26.469C127.161 26.6098 127.111 26.7608 127.086 26.9168L126.696 27.7032C126.593 27.8102 126.504 27.9294 126.43 28.0581C126.358 28.1847 126.317 28.3271 126.311 28.4731C125.779 29.607 125.169 30.7018 124.485 31.7497C124.355 31.9124 124.18 32.0322 123.981 32.0937C123.759 32.0836 123.539 32.0375 123.331 31.9572C123.116 31.875 122.889 31.8289 122.659 31.8207C122.568 31.8275 122.477 31.8421 122.388 31.8644L122.031 31.9463L121.722 32.0282C121.63 32.0282 121.586 32.0773 121.586 32.0937L121.554 32.1811C121.256 32.263 121.012 32.4323 120.519 33.0658C120.454 33.1012 120.404 33.1595 120.378 33.2296V33.2842C120.162 33.6009 119.901 33.9996 119.582 34.5238C117.956 37.2106 115.946 40.6236 117.577 42.6715C117.66 42.7846 117.751 42.8923 117.848 42.9937C117.919 43.0906 118.005 43.1754 118.103 43.2449C119.49 44.5063 120.584 43.6817 120.969 43.2886C121.082 43.1337 121.182 42.9693 121.267 42.7971L121.337 42.7206C121.432 42.6158 121.513 42.4981 121.576 42.3711C121.795 41.7646 122.069 41.1796 122.394 40.6236C122.624 40.2283 122.82 39.8136 122.979 39.384C123.813 37.6638 124.778 35.6651 125.574 34.016C125.574 34.016 125.737 33.9286 125.791 33.7538C125.845 33.5749 125.886 33.3924 125.916 33.2077C126.056 32.9183 126.192 32.6616 126.311 32.3886C126.339 32.37 126.362 32.3449 126.378 32.3154C126.394 32.2859 126.403 32.2529 126.403 32.2193C126.406 32.2104 126.406 32.2009 126.403 32.192C126.842 31.291 127.14 30.6957 127.194 30.6247C127.449 30.308 127.617 30.3681 127.303 31.8207C126.988 33.2733 125.439 41.1861 125.309 43.7418C125.252 43.8535 125.22 43.9767 125.217 44.1022C125.218 44.1817 125.236 44.26 125.271 44.3316C125.141 46.1337 124.902 46.576 125.2 47.346C125.198 47.3824 125.198 47.4189 125.2 47.4552C125.207 47.5977 125.231 47.7388 125.271 47.8757C125.316 48.0494 125.38 48.2178 125.46 48.3781C125.535 48.5338 125.63 48.6788 125.742 48.8095C125.778 48.8633 125.825 48.9083 125.881 48.9414C125.936 48.9744 125.998 48.9947 126.062 49.0007C126.159 49.0043 126.256 48.9849 126.344 48.9442C126.433 48.9034 126.51 48.8423 126.571 48.7658C126.699 48.6112 126.803 48.4382 126.88 48.2525C126.956 48.078 127.011 47.8946 127.042 47.7064C127.042 47.5426 127.08 47.4498 127.08 47.4334C127.081 47.2215 127.096 47.0099 127.124 46.7999C127.154 46.5787 127.222 46.3644 127.324 46.1665C127.324 46.1383 127.317 46.1106 127.304 46.0858C127.291 46.061 127.272 46.0399 127.248 46.0245C127.248 45.9589 127.248 45.8934 127.286 45.8224C127.693 43.862 128.749 35.6269 129.047 34.0269C129.134 33.5572 129.248 32.9347 129.372 32.2248C129.475 32.2248 129.524 32.1374 129.524 31.9954C129.52 31.9116 129.497 31.8297 129.459 31.7551C129.556 31.2582 129.654 30.7503 129.752 30.2643C129.752 30.2315 129.811 30.2042 129.844 30.1715C129.941 30.0543 129.99 29.9036 129.979 29.751C129.979 29.5435 129.979 29.3141 130.006 29.0629C130.092 28.6561 130.203 28.2549 130.337 27.8615C130.434 27.5994 130.548 27.2881 130.651 26.9495C130.686 26.8749 130.717 26.7983 130.743 26.7202C130.808 26.5454 130.873 26.3598 130.943 26.1741C130.961 25.8673 131.019 25.5642 131.117 25.2731L131.426 24.3775C131.535 24.0767 131.629 23.7705 131.707 23.46C131.791 23.1372 131.832 22.8051 131.832 22.4716C131.812 22.3605 131.768 22.255 131.703 22.1626C131.639 22.0702 131.555 21.9931 131.458 21.9364ZM123.57 34.3381C123.513 34.4724 123.45 34.6036 123.38 34.7313C123.311 34.8601 123.231 34.9825 123.141 35.0972C123.067 35.1843 122.986 35.2647 122.898 35.3375C122.648 35.8235 122.356 36.2986 122.096 36.7573C121.836 37.216 121.554 37.6802 121.288 38.1499C121.148 38.4229 120.969 38.7724 120.747 39.2038C120.525 39.6352 120.329 40.0612 120.113 40.4762C119.896 40.8912 119.701 41.2462 119.522 41.5684C119.343 41.8906 119.219 42.0107 119.148 42.0107C119.104 42.0106 119.06 41.9963 119.024 41.9698C118.988 41.9433 118.962 41.906 118.948 41.8633C118.901 41.7513 118.868 41.6339 118.85 41.5138C118.85 41.3772 118.823 41.2516 118.812 41.1315C118.802 41.0114 118.812 40.9294 118.812 40.8748C118.82 40.6803 118.844 40.4867 118.883 40.296C118.926 40.0502 118.986 39.7936 119.056 39.5205C119.127 39.2475 119.213 38.9744 119.311 38.7123C119.399 38.4666 119.511 38.2305 119.647 38.0079C119.753 37.838 119.835 37.6542 119.891 37.4618C120.215 36.5569 120.748 35.7427 121.446 35.0863C122.027 34.4921 122.743 34.0497 123.532 33.7975C123.601 33.8722 123.648 33.9649 123.667 34.0651C123.651 34.1613 123.618 34.2538 123.57 34.3381Z" fill="white"/>
<path d="M145.481 37.2652C144.89 37.1068 144.365 37.3799 143.211 37.4672C142.057 37.5546 142.507 37.6201 142.333 36.8228C142.16 36.0256 141.39 35.1846 140.204 34.5074C139.017 33.8303 134.856 34.9498 134.163 35.2283C133.469 35.5068 133.404 35.474 134.011 34.4474C134.186 34.172 134.38 33.9092 134.591 33.661C134.668 33.5996 134.742 33.534 134.813 33.4644C134.9 33.3883 134.965 33.2903 135.002 33.1804C135.965 32.0602 136.99 30.9972 138.075 29.9967C138.232 29.9255 138.397 29.8759 138.568 29.8493C138.598 29.8378 138.626 29.8196 138.648 29.7959C138.671 29.7723 138.687 29.7439 138.698 29.7128C138.733 29.6475 138.752 29.5742 138.752 29.4998C138.754 29.4744 138.754 29.4488 138.752 29.4233C138.756 29.3806 138.745 29.3376 138.719 29.3032C138.665 29.1597 138.571 29.0347 138.448 28.9428C138.265 28.8019 138.054 28.6998 137.831 28.6424C137.653 28.5939 137.472 28.5574 137.289 28.5332C136.989 28.4397 136.677 28.3919 136.362 28.3912C135.772 28.4185 135.685 29.1284 134.444 30.095C133.326 31.0032 132.351 32.0766 131.551 33.2787C131.379 33.4424 131.226 33.6257 131.096 33.8248C130.954 34.0495 130.872 34.3071 130.858 34.573C130.73 34.8692 130.636 35.1787 130.576 35.4959C130.332 36.9375 131.161 37.7184 132.315 37.9533C132.315 37.986 132.342 38.0242 132.353 38.0625C132.386 38.199 132.451 38.2645 132.543 38.2645C132.8 38.2641 133.056 38.2236 133.301 38.1444C133.437 38.1007 133.561 38.0515 133.675 38.0024H133.816C135.636 37.7457 135.615 37.145 137.359 36.6099C137.676 36.5035 138.003 36.4339 138.335 36.4024H138.443H138.562C139.201 36.457 139.299 36.9867 139.31 37.9642C139.31 39.3731 138.432 39.7554 136.373 40.8803C134.17 42.1504 132.408 44.0719 131.324 46.3849C131.12 46.8514 131.001 47.3507 130.971 47.8593C130.928 47.9341 130.897 48.0151 130.879 48.0996C130.891 48.2738 130.935 48.4443 131.009 48.602C131.037 48.6673 131.068 48.7311 131.101 48.7931C131.222 49.1471 131.447 49.4556 131.746 49.6778L131.844 49.7652C131.981 49.9006 132.162 49.982 132.353 49.9945H132.413C133.534 50.2621 135.615 48.8368 136.612 47.8593C137.609 46.8818 138.237 45.3255 139.635 43.152L139.863 42.8025C139.896 42.7643 139.925 42.7221 139.949 42.6769C140.861 41.3075 141.967 40.0804 143.233 39.0345L143.417 38.9581C143.683 38.8629 143.956 38.7916 144.235 38.7451C144.438 38.7041 144.645 38.6804 144.853 38.6741C144.919 38.6654 144.986 38.6654 145.053 38.6741C145.127 38.6953 145.204 38.7045 145.281 38.7014C145.48 38.6833 145.67 38.6031 145.822 38.472C145.92 38.4033 146.001 38.3138 146.061 38.2099C146.543 37.8167 146.012 37.4072 145.481 37.2652ZM136.194 45.7132C134.981 47.8593 133.171 48.4436 132.944 47.8156C132.521 46.6798 133.903 45.4128 134.45 44.8176C134.997 44.2224 138.329 41.6011 138.4 41.8742C138.47 42.1472 137.408 43.5671 136.194 45.7132Z" fill="white"/>
</g>
<defs>
<clipPath id="clip0_409_12879">
<rect width="148" height="50" fill="white"/>
</clipPath>
</defs>
</svg>
