<svg width="56" height="56" viewBox="0 0 56 56" fill="none" xmlns="http://www.w3.org/2000/svg">
<path d="M29.7373 36.7908L36.7262 43.78L56.0001 35.7786L54.7825 24.0072L48.6472 22.9787L29.7373 36.7908Z" fill="#A3B0C1"/>
<path d="M24.701 36.4007L19.5155 31.2147L13.2119 39.8468L16.0698 42.7049L24.701 36.4007Z" fill="#A3B0C1"/>
<path d="M27.0526 38.7516L18.4214 45.0559L22.8895 49.5249L33.4434 45.143L27.0526 38.7516Z" fill="#A3B0C1"/>
<path d="M10.8614 22.5591L6.47998 33.114L10.8614 37.4954L17.165 28.8633L10.8614 22.5591Z" fill="#A3B0C1"/>
<path d="M21.4766 28.5296L27.3858 34.4395L44.6474 21.8315L43.3875 12.6123L34.0338 11.3338L21.4766 28.5296Z" fill="#A3B0C1"/>
<path d="M4.58435 35.864L3.22144 37.2271C1.14374 39.305 -0.000427126 42.0674 1.19611e-07 45.0059C0.000427366 47.9443 1.14459 50.7067 3.22272 52.7847C5.36664 54.9284 8.18262 56.0004 10.999 56C13.8154 56 16.6327 54.9279 18.7766 52.7838L20.1391 51.4207L4.58435 35.864Z" fill="#A3B0C1"/>
<path d="M19.1259 26.1783L32.9951 7.18656L31.9949 1.21692L20.2252 0L12.2241 19.2758L19.1259 26.1783Z" fill="#A3B0C1"/>
</svg>
