<svg width="56" height="37" viewBox="0 0 56 37" fill="none" xmlns="http://www.w3.org/2000/svg">
<path d="M50.9939 6.54339C43.5972 -5.57822 32.4547 2.85493 32.4547 2.85493C31.732 3.39971 30.3995 3.84762 29.4941 3.8497L26.5096 3.85178C25.6042 3.85283 24.2717 3.40492 23.5501 2.86014C23.5501 2.86014 12.4065 -5.57509 5.00884 6.54652C-2.38678 18.664 0.593607 31.8605 0.593607 31.8605C1.11575 35.0917 2.83673 37.2479 6.08445 36.9771C9.32277 36.7073 16.3518 28.2752 16.3518 28.2752C16.9325 27.5804 18.1491 27.0127 19.0524 27.0127L36.9451 27.0096C37.8495 27.0096 39.065 27.5773 39.6446 28.2721C39.6446 28.2721 46.6747 36.7042 49.9182 36.974C53.1618 37.2448 54.8869 35.0865 55.406 31.8574C55.4049 31.8574 58.3905 18.6629 50.9939 6.54339ZM21.2767 16.4098H17.44V20.0983C17.44 20.0983 16.6275 20.717 15.3702 20.7014C14.115 20.6827 13.5469 20.0264 13.5469 20.0264V16.4109H9.92323C9.92323 16.4109 9.47106 15.9484 9.34992 14.7307C9.23088 13.513 9.85014 12.5287 9.85014 12.5287H13.6879V8.70168C13.6879 8.70168 14.4774 8.27981 15.6125 8.3121C16.7487 8.34752 17.581 8.77355 17.581 8.77355L17.5653 12.5276H21.189C21.189 12.5276 21.8218 13.338 21.874 14.3172C21.9262 15.2974 21.2767 16.4098 21.2767 16.4098ZM38.8749 20.6139C37.1947 20.6139 35.8403 19.2587 35.8403 17.5848C35.8403 15.9078 37.1947 14.5557 38.8749 14.5557C40.5479 14.5557 41.9128 15.9078 41.9128 17.5848C41.9128 19.2598 40.5479 20.6139 38.8749 20.6139ZM38.8749 12.2797C37.1947 12.2797 35.8403 10.9256 35.8403 9.25167C35.8403 7.57462 37.1947 6.22256 38.8749 6.22256C40.5479 6.22256 41.9128 7.57462 41.9128 9.25167C41.9128 10.9266 40.5479 12.2797 38.8749 12.2797ZM46.4376 16.7536C44.7574 16.7536 43.403 15.3994 43.403 13.7245C43.403 12.0485 44.7574 10.6954 46.4376 10.6954C48.1106 10.6954 49.4755 12.0485 49.4755 13.7245C49.4755 15.3994 48.1106 16.7536 46.4376 16.7536Z" fill="#A3B0C1"/>
</svg>
