<svg width="56" height="45" viewBox="0 0 56 45" fill="none" xmlns="http://www.w3.org/2000/svg">
<path d="M47.3726 3.99292C42.1706 1.4181 35.2906 0 28 0C20.7094 0 13.8294 1.4181 8.62739 3.99292C3.06392 6.74673 0 10.539 0 14.6715C0 18.804 3.06392 22.5964 8.62739 25.3501C13.8294 27.9249 20.7094 29.343 28 29.343C35.2906 29.343 42.1706 27.9249 47.3726 25.3501C52.9361 22.5964 56 18.804 56 14.6715C56 10.539 52.9361 6.74673 47.3726 3.99292Z" fill="#A3B0C1"/>
<path d="M48.8401 28.2554C43.1913 31.0515 35.7901 32.5913 28 32.5913C20.2099 32.5913 12.8087 31.0513 7.15991 28.2554C4.1592 26.7702 1.75328 24.9895 0 22.9577V30.3285C0 34.4608 3.06392 38.2532 8.62739 41.0071C13.8294 43.5818 20.7094 45 28 45C35.2906 45 42.1706 43.5818 47.3726 41.0071C52.9361 38.2532 56 34.4608 56 30.3285V22.9577C54.2467 24.9895 51.8408 26.7702 48.8401 28.2554Z" fill="#A3B0C1"/>
</svg>
