<svg width="55" height="55" viewBox="0 0 55 55" fill="none" xmlns="http://www.w3.org/2000/svg">
<path fill-rule="evenodd" clip-rule="evenodd" d="M24.6015 0.103152C23.224 0.242489 20.9682 0.700247 19.5691 1.12449C15.2001 2.44931 11.3085 4.78623 8.06171 8.0348C1.55635 14.5437 -1.23957 23.7134 0.512281 32.7936C1.54121 38.1264 4.15836 43.0282 8.06171 46.9338C14.5671 53.4428 23.7317 56.2402 32.8068 54.4874C38.1367 53.4579 43.0358 50.8393 46.9392 46.9338C50.8426 43.0282 53.4597 38.1264 54.4886 32.7936C56.2308 23.7635 53.4657 14.6095 47.0419 8.14169C45.5312 6.62059 44.4175 5.70013 42.6934 4.54752C39.0362 2.10263 34.6378 0.530185 30.2466 0.0977807C28.8986 -0.034895 25.9391 -0.0321018 24.6015 0.103152ZM30.8289 4.55848C35.7412 5.25817 40.3003 7.55158 43.8612 11.1145C47.4329 14.6881 49.6602 19.1257 50.4327 24.2077C50.6769 25.8137 50.6769 29.1549 50.4327 30.7609C49.6602 35.8429 47.4329 40.2805 43.8612 43.8541C40.2896 47.4278 35.8544 49.6563 30.7753 50.4292C29.1702 50.6735 25.8307 50.6735 24.2257 50.4292C19.1465 49.6563 14.7114 47.4278 11.1397 43.8541C7.56802 40.2805 5.34073 35.8429 4.5682 30.7609C4.32404 29.1549 4.32404 25.8137 4.5682 24.2077C5.34073 19.1257 7.56802 14.6881 11.1397 11.1145C16.3332 5.91811 23.5359 3.51985 30.8289 4.55848ZM37.2175 18.3142C37.0403 18.4064 33.9369 21.437 30.321 25.0487L23.7466 31.6156L20.8724 28.7546C17.728 25.6245 17.6304 25.5556 16.5498 25.701C15.1653 25.8873 14.2943 27.528 14.9308 28.7509C15.1873 29.2437 22.3772 36.4224 22.8513 36.6591C23.2862 36.8762 24.0614 36.8792 24.5781 36.6658C25.1312 36.4374 39.786 21.8083 40.0714 21.1997C40.57 20.1361 40.1336 18.8861 39.0739 18.3424C38.5866 18.0923 37.6706 18.0784 37.2175 18.3142Z" fill="#A3B0C1"/>
</svg>
