<svg width="55" height="55" viewBox="0 0 55 55" fill="none" xmlns="http://www.w3.org/2000/svg">
<path fill-rule="evenodd" clip-rule="evenodd" d="M24.2784 0.144283C16.1598 1.13124 8.99248 5.5782 4.47777 12.4293C-1.49259 21.4896 -1.49259 33.4943 4.47777 42.5545C9.64111 50.3899 18.169 55 27.5 55C36.831 55 45.3589 50.3899 50.5222 42.5545C56.4926 33.4943 56.4926 21.4896 50.5222 12.4293C45.9801 5.53672 38.7997 1.0989 30.645 0.144391C29.0005 -0.0480585 25.8608 -0.048166 24.2784 0.144283ZM34.1306 16.5768C34.9264 16.7888 35.6087 17.1401 36.2681 17.6777L36.8375 18.1417L37.7261 17.8627C38.2148 17.7093 38.9719 17.4196 39.4084 17.2188C39.8449 17.0182 40.22 16.854 40.2421 16.854C40.2641 16.854 40.2093 17.0283 40.1204 17.2413C39.8613 17.8617 39.0112 19.077 38.5811 19.4419L38.1851 19.7778L38.6147 19.7057C38.8509 19.6661 39.4429 19.4976 39.9302 19.3312C40.4175 19.1648 40.8162 19.0631 40.8162 19.105C40.8162 19.3381 40.0299 20.3005 39.2082 21.0729L38.2666 21.9581L38.1401 23.4612C37.7743 27.8113 36.2033 31.3651 33.4112 34.1589C31.2804 36.291 28.7777 37.6501 25.7775 38.3046C24.5011 38.5832 21.3837 38.5865 20.0902 38.3109C18.215 37.9114 16.5931 37.2735 14.8831 36.263L14.1325 35.8196L15.6348 35.7494C16.461 35.7109 17.4028 35.6255 17.7277 35.5599C19.565 35.1881 21.1467 34.5576 21.8188 33.9294L22.1805 33.5914L21.4199 33.3981C19.6647 32.9521 18.2791 31.9506 17.5829 30.6251C17.3672 30.2143 17.1907 29.8201 17.1907 29.7491C17.1907 29.6556 17.3616 29.6385 17.8082 29.6874C18.1478 29.7246 18.6432 29.7148 18.9089 29.6659L19.3922 29.5768L18.8665 29.3953C17.0577 28.7702 15.4114 26.7132 15.283 24.9178C15.2532 24.5015 15.2474 24.1611 15.2702 24.1613C15.2928 24.1616 15.6497 24.2814 16.0631 24.4277C16.4766 24.5739 16.9611 24.6946 17.1399 24.6959L17.4649 24.6981L16.8678 24.0703C15.3848 22.5108 14.8156 20.1935 15.4796 18.4179C15.8879 17.3259 15.8627 17.3268 16.9391 18.3623C19.6753 20.9942 22.4962 22.3386 26.9362 23.1265L27.2852 23.1884V22.1361C27.2852 20.3642 27.7948 19.1381 29.0063 17.9944C29.7524 17.2903 30.544 16.832 31.4402 16.5855C32.1296 16.3959 33.4355 16.3917 34.1306 16.5768Z" fill="#A3B0C1"/>
</svg>
