<svg width="50" height="57" viewBox="0 0 50 57" fill="none" xmlns="http://www.w3.org/2000/svg">
<path d="M36.8237 7.87768C28.676 -1.02303 14.626 -1.36822 6.05477 7.31985C-5.08761 18.6142 -0.127421 37.5429 15.0132 42.0987L14.149 49.126C13.6359 53.3101 16.9296 57 21.1742 57C25.4092 57 28.697 53.3276 28.2026 49.1557L27.3639 42.0824C35.3823 39.6462 41.3179 32.6322 42.2033 24.2413C46.5877 23.7262 50 20.014 50 15.5263C50.0001 8.80837 42.6687 4.59821 36.8237 7.87768ZM21.1632 4.28145C26.0605 4.28145 30.7793 6.22651 34.2943 9.99413C30.2401 14.9292 32.706 22.3944 38.9025 24.0148C38.6435 26.3302 37.937 28.5232 36.8591 30.4952H5.5191C-1.07476 18.6009 7.83062 4.28145 21.1632 4.28145ZM26.3565 38.9576C24.8509 39.4115 23.891 40.8652 24.0738 42.4138L24.9192 49.5396C25.0471 50.6158 24.7175 51.6537 23.9923 52.4631C21.5511 55.1833 16.9821 53.1594 17.4311 49.5243L18.3008 42.4434C18.4925 40.8847 17.5281 39.4236 16.0083 38.9697C12.7955 38.0093 9.99829 36.1741 7.85233 33.7765H34.5389C32.4096 36.1576 29.6123 37.9765 26.3565 38.9576ZM42.2937 20.9053C38.8447 21.6227 35.6168 18.9964 35.6168 15.5262C35.6168 12.5035 38.0957 10.0312 41.1552 10.0312C44.2093 10.0312 46.6936 12.4965 46.6936 15.5262C46.6935 18.1699 44.8034 20.3836 42.2937 20.9053Z" fill="#A3B0C1"/>
</svg>
