<svg width="56" height="40" viewBox="0 0 56 40" fill="none" xmlns="http://www.w3.org/2000/svg">
<path d="M55.9923 29.2848C55.872 24.1358 54.2859 17.2631 51.7481 10.9C50.5885 7.98396 49.3306 5.47989 48.1164 3.66959C46.4974 1.2414 45.0425 0.114027 43.5111 0.114027C42.6469 0.114027 41.8703 0.0815067 41.1264 0.0489863C39.2449 -0.0268946 37.6151 -0.0919354 36.2039 0.482592C34.7491 1.0788 33.9068 2.19533 33.3927 3.31187H22.6069C22.0928 2.19533 21.2505 1.0788 19.7957 0.482592C18.3736 -0.0919354 16.7547 -0.0268946 14.8732 0.0489863C14.1184 0.0815067 13.3417 0.114027 12.4885 0.114027C10.9571 0.114027 9.50219 1.2414 7.88324 3.66959C6.66903 5.49073 5.422 7.9948 4.25154 10.9108C1.71373 17.2631 0.127594 24.1358 0.00726677 29.2957C-0.200572 38.3363 4.0984 39.8756 6.67997 39.9949H6.90969C9.49126 39.9949 12.3244 38.0328 15.5514 34.022C17.0719 32.1358 18.297 30.2496 18.9643 29.1873H37.0353C37.6916 30.2496 38.9277 32.1249 40.4482 34.022C43.7846 38.1521 46.6834 40.1141 49.3196 39.9949C51.9012 39.8756 56.2002 38.3255 55.9923 29.2848ZM31.9815 6.78071C30.8986 8.50429 29.3234 9.1547 27.9998 9.1547C26.6762 9.1547 25.101 8.49345 24.0181 6.78071H31.9815ZM52.3388 32.4285C51.7481 36.4068 49.8666 36.4935 49.1665 36.526C48.6742 36.5477 46.7599 36.2767 43.2158 31.8865C41.1264 29.2957 39.5731 26.6182 39.5512 26.5965C39.234 26.0545 38.6652 25.7184 38.0307 25.7184H17.9689C17.3454 25.7184 16.7656 26.0545 16.4484 26.5856C16.4374 26.6073 14.8841 29.2848 12.7839 31.8756C9.23966 36.2659 7.32536 36.5369 6.83311 36.5152C6.12209 36.4827 4.25154 36.396 3.66084 32.4176C3.05921 28.3417 4.16403 21.5558 6.5487 14.7157C7.60977 11.6913 8.84586 8.8837 10.0382 6.80239C11.5259 4.2116 12.3901 3.65875 12.5651 3.57203C13.4621 3.57203 14.2825 3.53951 15.0044 3.50699C18.4721 3.36607 19.0956 3.34439 19.8066 5.8051C20.9989 9.95687 24.215 12.6235 27.9998 12.6235C31.7846 12.6235 35.0007 9.94603 36.193 5.8051C36.904 3.34439 37.5275 3.36607 40.9952 3.50699C41.7171 3.53951 42.5375 3.57203 43.4345 3.57203C43.6096 3.65875 44.4847 4.2116 45.9614 6.80239C47.1537 8.8837 48.3898 11.6913 49.4509 14.7157C51.8356 21.5558 52.9404 28.3417 52.3388 32.4285ZM20.7583 17.1872C20.7583 18.1412 19.9707 18.9217 19.0081 18.9217H16.7984V21.1114C16.7984 22.0653 16.0108 22.8458 15.0482 22.8458C14.0856 22.8458 13.298 22.0653 13.298 21.1114V18.9217H11.0883C10.1257 18.9217 9.33811 18.1412 9.33811 17.1872C9.33811 16.2333 10.1257 15.4528 11.0883 15.4528H13.298V13.2631C13.298 12.3092 14.0856 11.5287 15.0482 11.5287C16.0108 11.5287 16.7984 12.3092 16.7984 13.2631V15.4528H19.0081C19.9816 15.4528 20.7583 16.2225 20.7583 17.1872ZM42.7016 13.2523V13.6859C42.7016 14.6398 41.914 15.4203 40.9514 15.4203C39.9888 15.4203 39.2012 14.6398 39.2012 13.6859V13.2523C39.2012 12.2983 39.9888 11.5178 40.9514 11.5178C41.914 11.5178 42.7016 12.2983 42.7016 13.2523ZM42.7016 20.6886V21.1114C42.7016 22.0653 41.914 22.8458 40.9514 22.8458C39.9888 22.8458 39.2012 22.0653 39.2012 21.1114V20.6886C39.2012 19.7347 39.9888 18.9542 40.9514 18.9542C41.914 18.9542 42.7016 19.7238 42.7016 20.6886ZM46.6615 17.1872C46.6615 18.1412 45.8739 18.9217 44.9113 18.9217H44.4737C43.5111 18.9217 42.7235 18.1412 42.7235 17.1872C42.7235 16.2333 43.5111 15.4528 44.4737 15.4528H44.9113C45.8848 15.4528 46.6615 16.2225 46.6615 17.1872ZM39.1684 17.1872C39.1684 18.1412 38.3808 18.9217 37.4182 18.9217H36.9915C36.0289 18.9217 35.2413 18.1412 35.2413 17.1872C35.2413 16.2333 36.0289 15.4528 36.9915 15.4528H37.4182C38.3808 15.4528 39.1684 16.2225 39.1684 17.1872Z" fill="#A3B0C1"/>
</svg>
