<svg width="55" height="55" viewBox="0 0 55 55" fill="none" xmlns="http://www.w3.org/2000/svg">
<path fill-rule="evenodd" clip-rule="evenodd" d="M24.5692 0.101569C19.8524 0.630386 15.3254 2.35281 11.5098 5.07047C6.15078 8.88751 2.36662 14.4338 0.767228 20.8158C0.122484 23.3879 0.00140563 24.4385 7.75366e-06 27.4675C-0.00139013 30.7454 0.185711 32.1915 0.979706 35.0386C3.57137 44.3308 11.0568 51.6917 20.4086 54.1441C23.0967 54.849 24.2864 54.9942 27.4188 54.9998C30.5578 55.0054 31.5595 54.8919 34.1931 54.2321C43.8989 51.8002 51.5867 44.2068 54.0812 34.588C54.7684 31.9382 55 30.151 55 27.498C55 20.1108 52.1262 13.1994 46.8907 7.99575C42.4339 3.5661 36.8565 0.878336 30.5915 0.141262C29.1493 -0.0283766 25.9184 -0.0496756 24.5692 0.101569ZM29.8204 13.457C30.9614 13.8622 31.7136 14.3438 32.6335 15.2583C34.0193 16.6359 34.7142 18.3447 34.7113 20.3679C34.7083 22.4071 34.0814 23.9217 32.6363 25.3808C31.078 26.9541 29.6247 27.5704 27.4725 27.5704C25.3207 27.5704 23.8675 26.9542 22.3083 25.3808C20.8602 23.9194 20.2402 22.4227 20.2315 20.3679C20.2214 17.9715 21.3122 15.813 23.2224 14.4493C24.6538 13.4276 25.7784 13.0991 27.6876 13.1448C28.8084 13.1716 29.1628 13.2235 29.8204 13.457ZM26.5337 16.7817C25.9624 16.9098 25.0074 17.5502 24.5805 18.0916C23.7484 19.1469 23.5831 20.7443 24.1799 21.9643C25.2334 24.1188 28.1893 24.6636 29.9329 23.025C30.7381 22.2683 31.0748 21.469 31.0748 20.3141C31.0748 19.5309 31.0316 19.312 30.7743 18.7877C30.001 17.2123 28.2686 16.3928 26.5337 16.7817ZM20.3835 28.016C21.9728 28.7916 23.0218 29.1964 24.3004 29.5276C25.3951 29.8112 25.6315 29.8339 27.4725 29.8325C29.2701 29.8311 29.5713 29.8032 30.5973 29.5436C31.9086 29.212 32.8802 28.8406 34.4524 28.07C35.6418 27.4871 36.0629 27.4125 36.8428 27.6462C37.8651 27.9526 38.6253 29.1072 38.5143 30.1844C38.4463 30.8428 38.0475 31.5989 37.6003 31.9175C36.9488 32.3816 34.8191 33.3586 33.5188 33.7901C32.766 34.0398 32.1288 34.2575 32.1026 34.2739C32.0765 34.2902 32.9536 35.2099 34.0517 36.3178C36.2602 38.5461 36.3593 38.7028 36.2592 39.8072C36.1494 41.019 35.3038 41.8388 34.0836 41.9164C32.9031 41.9916 32.8365 41.9463 30.0263 39.1564L27.4725 36.6209L24.9187 39.1564C22.1085 41.9463 22.042 41.9916 20.8614 41.9164C19.637 41.8384 18.7629 40.9864 18.6761 39.7861C18.597 38.6925 18.7012 38.5296 20.8934 36.3178C21.9914 35.2099 22.8686 34.2869 22.8424 34.2665C22.8163 34.2462 22.5773 34.1677 22.3111 34.0922C20.881 33.6862 18.1465 32.4886 17.3434 31.9164C16.8943 31.5966 16.4987 30.8422 16.4298 30.1747C16.3223 29.1327 17.0275 28.0307 18.0357 27.6649C18.7505 27.4056 19.3012 27.4879 20.3835 28.016Z" fill="#A3B0C1"/>
</svg>
