<svg width="56" height="57" viewBox="0 0 56 57" fill="none" xmlns="http://www.w3.org/2000/svg">
<path d="M52.3356 3.66843C49.4638 0.798098 42.2783 -0.584562 34.4592 0.238033C25.6271 1.03744 17.3217 4.78922 10.883 10.888C4.78518 17.327 1.03391 25.6326 0.234154 34.465C-0.586603 42.2884 0.790659 49.473 3.66418 52.3451C5.9392 54.6204 10.9705 56.003 17.0343 56.003C26.0399 56.003 37.3047 52.9384 45.1168 45.1255C51.2149 38.6861 54.9663 30.3798 55.7656 21.5468C56.5864 13.7251 55.2056 6.54052 52.3356 3.66843ZM6.13871 49.8703L6.13521 49.8738C6.11595 49.8546 6.09845 49.8213 6.0792 49.8003C5.67856 49.2547 5.48781 48.583 5.54195 47.9083C5.54195 43.6168 9.90474 35.7304 16.6598 27.816L13.9963 25.5407C9.75664 30.2873 6.25475 35.6444 3.60818 41.4326C3.44499 39.2333 3.47956 37.0239 3.71143 34.8308C4.42817 26.7953 7.8255 19.2342 13.3575 13.3628C19.2293 7.83118 26.7902 4.43458 34.825 3.71919C36.1707 3.57666 37.5229 3.50479 38.8762 3.50391C39.7635 3.50391 40.5983 3.54592 41.4085 3.60718C36.0656 6.03219 31.1005 9.21537 26.6664 13.0583L28.8994 15.7553C36.5032 9.46336 43.7745 5.5534 47.8958 5.5534C48.5947 5.49072 49.291 5.69801 49.8418 6.13272L49.8611 6.14847C52.3584 8.64601 47.5248 20.4476 33.9814 33.9925C20.4381 47.5373 8.63598 52.3661 6.13871 49.8703ZM52.2849 21.181C51.5695 29.2166 48.1733 36.7783 42.6423 42.6507C34.6552 50.6369 22.8198 52.9542 14.6525 52.4099C21.2816 49.6463 29.3877 43.5328 36.456 36.462C43.5243 29.3912 49.6336 21.2825 52.3934 14.651C52.5512 16.8266 52.5149 19.0118 52.2849 21.181Z" fill="#A3B0C1"/>
<path d="M21.3433 17.789L23.7603 20.3233C24.6039 19.5182 25.448 18.7399 26.2928 17.9886L23.9616 15.3773C23.0912 16.1591 22.2184 16.9629 21.3433 17.789Z" fill="#A3B0C1"/>
<path d="M16.3555 22.8717L18.9353 25.2379C19.6996 24.4048 20.4895 23.573 21.305 22.7422L18.8058 20.2919C17.9692 21.1495 17.1525 22.0094 16.3555 22.8717Z" fill="#A3B0C1"/>
</svg>
