<svg width="56" height="57" viewBox="0 0 56 57" fill="none" xmlns="http://www.w3.org/2000/svg">
<path d="M55.8795 25.5035C55.7223 23.7473 55.3977 22.0102 54.9101 20.3158C54.8576 20.1286 54.8156 19.9379 54.7579 19.7524C54.7386 19.6859 54.7106 19.623 54.6896 19.5565C53.7284 16.51 52.2485 13.6523 50.315 11.1092V11.097C49.5539 10.0725 48.7194 9.10478 47.818 8.20132C42.5644 2.95002 35.44 0 28.0115 0C20.583 0 13.4586 2.95002 8.20498 8.20132C7.29817 9.10374 6.4589 10.0716 5.69395 11.097C2.29644 15.574 0.325253 20.9698 0.0368832 26.5824C-0.251487 32.195 1.15631 37.7644 4.07709 42.5659C6.78522 47.0636 10.7207 50.6951 15.4213 53.034C19.3232 54.9866 23.6264 56.0032 27.9896 56.0032C32.3528 56.0032 36.656 54.9866 40.5579 53.034C45.2627 50.6974 49.2026 47.0664 51.9144 42.5677C55.0465 37.4579 56.4377 31.4706 55.8795 25.5035V25.5035ZM47.0078 43.46C46.5575 44.0152 46.0833 44.5512 45.5852 45.0679C45.4977 45.1572 45.4189 45.2551 45.3297 45.3444C44.6548 46.0158 43.9408 46.6468 43.1914 47.234C43.0846 47.3197 42.9761 47.4089 42.8677 47.4877C42.1203 48.0639 41.3385 48.5939 40.5264 49.0746L41.7618 42.9404L47.9265 42.216C47.7987 42.391 47.6815 42.5887 47.5485 42.7672C47.3665 43.0034 47.1915 43.2361 47.0078 43.46V43.46ZM50.1173 38.5225C49.9325 38.4848 49.7427 38.4777 49.5556 38.5015L40.5194 39.5671L35.0948 33.4188C35.0669 33.3874 35.0284 33.3751 35.0004 33.3471L37.3486 26.1176L44.4303 23.2535L51.9826 28.1087C52.135 28.2051 52.3015 28.2771 52.4761 28.3222C52.4454 31.8539 51.6402 35.3358 50.1173 38.5225ZM15.4703 49.0781C14.6559 48.5959 13.8722 48.0636 13.1238 47.4842C13.0171 47.4037 12.9121 47.3197 12.8053 47.2375C12.0591 46.648 11.3474 46.0159 10.674 45.3444C10.5848 45.2569 10.5078 45.1589 10.4203 45.0697C9.91983 44.5518 9.44387 44.0141 8.99241 43.4565C8.81742 43.2326 8.64244 43.0051 8.46746 42.7759C8.33272 42.6009 8.21548 42.4032 8.08599 42.2195L14.2507 42.9439L15.4861 49.0798L15.4703 49.0781ZM15.4703 39.5671L6.43939 38.5015C6.25227 38.4777 6.0625 38.4848 5.87769 38.5225C4.35355 35.3361 3.54716 31.8541 3.51539 28.3222C3.69 28.2771 3.85649 28.2051 4.00885 28.1087L11.5612 23.2535L18.6428 26.1176L20.9981 33.3471C20.9701 33.3751 20.9316 33.3874 20.9036 33.4188L15.4703 39.5671ZM4.28883 21.8765C4.33607 21.6875 4.38682 21.4986 4.44106 21.3114C4.64404 20.5975 4.86627 19.8907 5.141 19.1978L5.15675 19.1576C5.42623 18.4577 5.73945 17.7893 6.07192 17.121C6.15941 16.946 6.2469 16.771 6.33964 16.5961C6.67911 15.954 7.03958 15.3223 7.4368 14.71L7.47529 14.647L9.0799 20.6885L3.83037 24.067C3.83037 24.0443 3.84087 24.0198 3.84437 23.9953C3.94936 23.2902 4.10684 22.5763 4.28883 21.8765V21.8765ZM22.342 26.1753L27.9975 22.0654L33.653 26.1736L31.4972 32.8257H24.4978L22.342 26.1753ZM25.2642 3.68201L25.6387 3.64352C27.2099 3.49251 28.792 3.49251 30.3633 3.64352L30.7132 3.67851C31.5007 3.76599 32.2881 3.88147 33.0633 4.04418L27.9975 7.71842L22.9229 4.04418C23.6999 3.88497 24.482 3.76949 25.2642 3.68201V3.68201ZM49.6711 16.6153C49.7568 16.778 49.846 16.9425 49.9248 17.1087C50.2608 17.7823 50.5757 18.4647 50.8487 19.1646V19.1785C51.1182 19.8784 51.3422 20.587 51.5486 21.3061C51.6029 21.4986 51.6554 21.6928 51.7061 21.887C51.8811 22.5658 52.0333 23.25 52.1488 23.9428C52.1488 23.9866 52.1663 24.0285 52.1733 24.0705L46.9238 20.692L48.5284 14.6505L48.5424 14.6715C48.9519 15.3014 49.3211 15.954 49.6711 16.6153V16.6153ZM45.8931 11.2859C45.79 11.4423 45.7126 11.6142 45.6639 11.7951L43.5256 19.8434L35.4518 23.1152C35.4396 23.1152 35.4308 23.131 35.4186 23.1362L29.7473 19.0123V10.7768L36.7467 5.70284C36.8991 5.59203 37.0327 5.45732 37.1422 5.30392C40.2034 6.53353 42.9882 8.36209 45.3332 10.6823C45.5239 10.8678 45.7059 11.083 45.8931 11.2859ZM18.8545 5.30217C18.9635 5.45544 19.0964 5.59014 19.2483 5.70109L26.2476 10.775V19.0106L20.5764 23.1327C20.5641 23.1327 20.5554 23.117 20.5431 23.1117L12.4694 19.8469L10.324 11.7951C10.2754 11.6142 10.198 11.4423 10.0948 11.2859C10.282 11.0847 10.4605 10.8765 10.653 10.6858C13.0006 8.36257 15.7891 6.53215 18.8545 5.30217ZM19.3217 50.9082C19.3453 50.7223 19.3382 50.5337 19.3007 50.3501L17.6856 42.3297C17.7014 42.314 17.7224 42.3088 17.7364 42.293L23.0279 36.2935C23.0944 36.3075 23.1616 36.3181 23.2291 36.325H32.7658C32.8334 36.3181 32.9006 36.3075 32.967 36.2935L38.2586 42.293C38.2726 42.3088 38.2936 42.314 38.3093 42.3297L36.6942 50.3501C36.6567 50.5337 36.6497 50.7223 36.6732 50.9082C31.0811 53.0139 24.9139 53.0139 19.3217 50.9082V50.9082Z" fill="#A3B0C1"/>
</svg>
