<svg width="56" height="56" viewBox="0 0 56 56" fill="none" xmlns="http://www.w3.org/2000/svg">
<path d="M18.2397 12.0724L24.012 19.8546H32.0113L37.7837 12.0724L34.2033 0.688734C32.2079 0.238766 30.1322 0 28.0005 0C25.8774 0 23.8099 0.237016 21.8218 0.683484L18.2397 12.0724Z" fill="#A3B0C1"/>
<path d="M48.4199 34.9251L51.1861 43.7521C53.9792 39.6613 55.7146 34.7936 55.9999 29.5403L48.4199 34.9251Z" fill="#A3B0C1"/>
<path d="M24.3785 23.1358L22.1328 30.0369L28.0122 34.3021L33.8914 30.0369L31.6456 23.1358H24.3785Z" fill="#A3B0C1"/>
<path d="M40.8117 10.7487L50.1591 10.8401C47.0366 6.82589 42.8443 3.68365 38.0093 1.83839L40.8117 10.7487Z" fill="#A3B0C1"/>
<path d="M34.6636 21.7922L37.1309 29.3741L46.228 32.4553L55.9357 25.5591C55.5787 21.4327 54.3268 17.5622 52.3726 14.143L40.4237 14.0263L34.6636 21.7922Z" fill="#A3B0C1"/>
<path d="M0 29.5229C0.282942 34.793 2.02562 39.6755 4.83116 43.7756L7.60471 34.9252L0 29.5229Z" fill="#A3B0C1"/>
<path d="M45.1771 35.5644L36.1002 32.4901L29.6548 37.1658V46.6557L39.2819 53.6397C42.8891 52.0551 46.0989 49.7351 48.7194 46.868L45.1771 35.5644Z" fill="#A3B0C1"/>
<path d="M28.012 49.5194L20.4834 54.981C22.876 55.6442 25.3966 56 28.0007 56C30.6107 56 33.1369 55.6426 35.5343 54.9766L28.012 49.5194Z" fill="#A3B0C1"/>
<path d="M26.3685 46.6557V37.1659L19.9235 32.4903L10.8475 35.5644L7.29932 46.8869C9.91984 49.7489 13.1282 52.0645 16.7329 53.6457L26.3685 46.6557Z" fill="#A3B0C1"/>
<path d="M15.2119 10.7487L18.0174 1.82865C13.1715 3.67271 8.96993 6.81888 5.8418 10.8403L15.2119 10.7487Z" fill="#A3B0C1"/>
<path d="M18.8927 29.3747L21.36 21.7924L15.5998 14.0265L3.62848 14.1433C1.67681 17.5582 0.425638 21.4231 0.0668945 25.5435L9.79679 32.4554L18.8927 29.3747Z" fill="#A3B0C1"/>
</svg>
