<svg width="56" height="56" viewBox="0 0 56 56" fill="none" xmlns="http://www.w3.org/2000/svg">
<path d="M25.3726 0.108068C19.1081 0.692243 12.9928 3.38875 8.18668 8.19211C3.38058 12.9941 0.68681 19.1095 0.104004 25.3822C6.98276 26.1797 14.2966 29.6957 20.3011 35.7003C26.3084 41.7062 29.8285 49.0255 30.6192 55.8988C36.9015 55.316 43.0018 52.6208 47.812 47.8202C52.6168 43.0196 55.3078 36.9015 55.8879 30.6301C49.0255 29.8339 41.6994 26.3179 35.6948 20.312C29.6944 14.3075 26.1743 6.98682 25.3726 0.108068Z" fill="#A3B0C1"/>
<path d="M56 27.1566C55.7962 20.2682 53.0709 13.4442 47.8202 8.18665C42.5668 2.92908 35.7345 0.213422 28.8462 0C29.6205 6.01549 32.815 12.4797 38.1697 17.8358C43.5244 23.1919 49.9804 26.3809 56 27.1566Z" fill="#A3B0C1"/>
<path d="M0.000976562 28.853C0.203454 35.7386 2.93006 42.564 8.18626 47.8188C13.4384 53.0709 20.2624 55.8002 27.1493 56C26.375 49.9927 23.1846 43.5326 17.8272 38.1765C12.4752 32.8232 6.01236 29.6328 0.000976562 28.853Z" fill="#A3B0C1"/>
</svg>
