<svg width="54" height="54" viewBox="0 0 54 54" fill="none" xmlns="http://www.w3.org/2000/svg">
<path fill-rule="evenodd" clip-rule="evenodd" d="M24.1453 0.0996915C16.0488 1.00808 8.95764 5.33639 4.43714 12.1292C2.36672 15.2404 0.849091 19.1948 0.241976 23.0603C-0.122715 25.3828 -0.0696517 29.1251 0.363821 31.655C2.13506 41.9909 9.93019 50.5002 20.0635 53.1596C22.7007 53.8517 23.8679 53.9943 26.9409 53.9998C30.0205 54.0053 31.0033 53.8938 33.587 53.246C43.1091 50.8584 50.6513 43.403 53.0986 33.9591C53.7728 31.3574 54 29.6028 54 26.998C54 19.7451 51.1806 12.9593 46.0442 7.85034C41.6718 3.50123 36.2 0.862336 30.0536 0.138663C28.6387 -0.0278912 25.469 -0.0488029 24.1453 0.0996915ZM43.1449 14.1637C43.3421 14.2952 43.5914 14.5825 43.699 14.8022C43.9317 15.2776 44.2654 13.6449 40.8696 28.6495C39.1081 36.4327 38.4232 39.284 38.2602 39.5133C37.9843 39.9013 37.4827 40.1171 36.8573 40.1171C36.3411 40.1171 36.3229 40.1056 29.8947 35.7301L27.9958 34.4376L25.9915 36.341C24.8891 37.3877 23.8447 38.3328 23.6706 38.441C23.1387 38.7716 22.3286 38.6441 21.9337 38.1677C21.8571 38.0753 21.1183 36.0166 20.2919 33.5929L18.7893 29.186L14.6921 28.0592C10.4171 26.8836 10.3115 26.8413 10.1603 26.2378C10.0814 25.9231 10.2679 25.4791 10.5583 25.2903C10.6914 25.2037 14.5744 23.772 19.1871 22.1088C28.2059 18.8568 31.0337 17.8356 37.5958 15.4612C42.1849 13.8006 42.4924 13.7286 43.1449 14.1637ZM29.2447 23.236C19.7439 28.682 20.1743 28.4253 20.0877 28.6983C20.0379 28.8555 21.6371 33.8774 22.4101 35.9906C22.4579 36.1211 22.4838 36.1211 22.6044 35.9906C22.6895 35.8984 22.8339 35.0396 22.9763 33.7803C23.1042 32.6475 23.2343 31.5699 23.2654 31.3855C23.3149 31.0914 24.2183 30.3169 30.6434 25.0606C35.4807 21.1031 37.965 19.0053 37.965 18.8777C37.965 18.7716 37.8742 18.6361 37.7633 18.5767C37.5948 18.4865 36.1882 19.2558 29.2447 23.236Z" fill="#A3B0C1"/>
</svg>
